The Kids Biostats - Parallel Computing in R
…
Let’s use nycflights13::flights — a set of over 300,000 flight records that departed from all NYC airports in 2013.

We would like to explore how arrival delay (as a continuous and dichotomous (delayed = 1, not delayed = 0) outcome variable) may be influenced by a set of independent variables. We would like to stratify this by month.

Code

flights <- nycflights13::flights
flights <- flights %>%
  select(year, day, dep_delay, arr_delay, air_time, distance) %>%
  mutate(arr_delay_bin = as.factor(case_when(arr_delay >  15 ~ 1, TRUE ~ 0)))

flights

# A tibble: 336,776 × 7
    year   day dep_delay arr_delay air_time distance arr_delay_bin
   <int> <int>     <dbl>     <dbl>    <dbl>    <dbl> <fct>        
 1  2013     1         2        11      227     1400 0            
 2  2013     1         4        20      227     1416 1            
 3  2013     1         2        33      160     1089 1            
 4  2013     1        -1       -18      183     1576 0            
 5  2013     1        -6       -25      116      762 0            
 6  2013     1        -4        12      150      719 0            
 7  2013     1        -5        19      158     1065 1            
 8  2013     1        -3       -14       53      229 0            
 9  2013     1        -3        -8      140      944 0            
10  2013     1        -2         8      138      733 0            
# ℹ 336,766 more rows
…
